............
----------------------------------------------------------------------
Ran 12 tests in 0.111s

OK
Name             Stmts   Miss Branch BrPart  Cover   Missing
------------------------------------------------------------
Collatz.py          34      3     16      1    88%   54-56, 51->54
TestCollatz.py      53      0      0      0   100%
------------------------------------------------------------
TOTAL               87      3     16      1    94%
