1 10 20
100 200 125
201 210 89
900 1000 174
1 1 1
999999 999999 259
999999 999998 259
10 1 20
3000 4000 238
1 9 20
999999 800000 525
2300 2301 46
10764 169101 383
44001 32570 324
68032 94654 351
198364 48732 383
103653 53213 351
143738 71037 375
11736 177622 383
168113 18212 383
116439 57561 354
78716 157027 383
52422 115593 354
4717 30442 308
93817 24249 351
194747 56771 383
143351 3696 375
166775 119094 383
242057 170535 443
174731 264833 443
107044 288601 443
153222 118272 375
104134 110399 354
229788 161415 386
103058 273506 443
192084 130993 383
258202 259987 345
196803 272233 443
215970 277691 443
241524 198648 443
115105 260385 443
171888 252114 443
967299 925439 507
953876 979437 458
981528 910566 507
972166 937128 507
985527 916297 507
829937 827308 419
873471 833606 525
820474 809986 450
883975 844503 432
858039 860364 370
807563 856318 525
835998 828821 419
821191 871012 525
898311 852936 445
888610 865494 445
827191 821883 375
805302 820684 450
856493 809964 525
800045 848658 525
805761 823436 450
402598 761944 509
775488 332392 509
616852 464589 470
439578 630877 509
656557 522177 509
549074 512685 452
687224 597657 509
283753 290014 389
644336 630723 416
315741 487058 449
756594 228280 509
170936 127043 383
706346 423374 509
764481 724835 424
767089 503950 509
81375 4713 351
10255 59790 340
57309 67478 335
18368 63949 340
43564 31512 324
1609 13317 276
68523 6844 340
3192 6354 262
44693 59597 340
40119 44123 288
54591 39722 340
1234 93259 351
51094 9946 324
59206 55846 322
29849 2479 308
262509 292663 407
163773 236883 443
161487 42039 383
127582 193248 383
146090 263200 443
112920 71323 354
198379 105967 383
69167 107392 354
57317 164515 383
177980 127892 383
132424 295295 443
175925 91183 383
119745 66697 354
54334 270073 443
41328 120388 354
